process_data_with_partial_dict
…
These kind of problematic scenarios are suitable for the functions
create_partial_dictionary() and
sort_partial_dictionary(), which create a “partial”
dictionary that ease the process of unify the data.

dict_path <- sprintf('%s/dict.xlsx', folder)
unlink(dict_path)
create_partial_dictionary(folder, files, dict_path, verbose = F)
sort_partial_dictionary(dict_path, overwrite = T)
#> 
#> Save sorted dictionary in /private/var/folders/81/k3c_c4qs1ldcb8jbks6zcshw0000gn/T/RtmppjFUPr/temp_libpathe592ec1fdc5/dataRC/extdata/dict.xlsx.

dict <- readxl::read_excel(dict_path, sheet = 'colname') %>% print
#> # A tibble: 75 × 29
#>    uniname   uniclass class_mode unique_classes   nofetal1998.parquet
#>    <chr>     <lgl>    <chr>      <chr>            <chr>              
#>  1 A_DEFUN   NA       integer    integer          a_defun            
#>  2 ANO       NA       integer    integer          ano                
#>  3 AREA_RES  NA       integer    integer          area_res           
#>  4 ASIS_MED  NA       integer    integer          asis_med           
#>  5 C_BAS1    NA       character  character        c_bas1             
#>  6 C_MUERTE  NA       integer    integer; logical c_muerte           
#>  7 CAU_HOMOL NA       integer    integer          cau_homol          
#>  8 COD_DPTO  NA       integer    integer          cod_dpto           
#>  9 COD_MUNIC NA       integer    integer          cod_munic          
#> 10 CODMUNOC  NA       integer    logical; integer codmunoc           
#> # ℹ 65 more rows
#> # ℹ 24 more variables: nofetal1999.parquet <chr>, nofetal2000.parquet <chr>,
#> #   nofetal2001.parquet <chr>, nofetal2002.parquet <chr>,
#> #   nofetal2003.parquet <chr>, nofetal2004.parquet <chr>,
#> #   nofetal2005.parquet <chr>, nofetal2006.parquet <chr>,
#> #   nofetal2007.parquet <chr>, nofetal2008.parquet <chr>,
#> #   nofetal2009.parquet <chr>, nofetal2010.parquet <chr>, …
…
#> Warning: Using an external vector in selections was deprecated in tidyselect 1.1.0.
#> ℹ Please use `all_of()` or `any_of()` instead.
#>   # Was:
#>   data %>% select(file)
#> 
#>   # Now:
#>   data %>% select(all_of(file))
#> 
#> See <https://tidyselect.r-lib.org/reference/faq-external-vector.html>.
#> This warning is displayed once every 8 hours.
#> Call `lifecycle::last_lifecycle_warnings()` to see where this warning was
#> generated.
# MODIFY: Process your data as required.
df %>% group_by(ANO) %>% mutate(prop_ = n_ / sum(n_))
#> # A tibble: 50 × 4
#> # Groups:   ANO [25]
#>      ANO  SEXO    n_ prop_
#>    <int> <int> <int> <dbl>
#>  1  1998     2    43  0.43
#>  2  1998     1    57  0.57
#>  3  1999     1    78  0.78
#>  4  1999     2    22  0.22
#>  5  2000     2    38  0.38
#>  6  2000     1    62  0.62
#>  7  2001     1    78  0.78
#>  8  2001     2    22  0.22
#>  9  2002     2    40  0.4 
#> 10  2002     1    60  0.6 
#> # ℹ 40 more rows
…
    # End lazy evaluation. If you use `read_parquet() this is unnecesary.
    collect
  
  # Save the iteration results.
  # NOTE: # If all columns are going to have the same columns is recommended to 
  # use `rbind()`.
  df <- dplyr::bind_rows(df, df0)
}
# MODIFY: Process your data as required.
df %>% group_by(ANO) %>% mutate(prop_ = n_ / sum(n_))
#> # A tibble: 50 × 4
#> # Groups:   ANO [25]
#>      ANO  SEXO    n_ prop_
#>    <int> <int> <int> <dbl>
#>  1  1998     2    43  0.43
#>  2  1998     1    57  0.57
#>  3  1999     1    78  0.78
#>  4  1999     2    22  0.22
#>  5  2000     2    38  0.38
#>  6  2000     1    62  0.62
#>  7  2001     1    78  0.78
#>  8  2001     2    22  0.22
#>  9  2002     2    40  0.4 
#> 10  2002     1    60  0.6 
#> # ℹ 40 more rows
…
