Process data with a partial dictionary • dataRC
…
These kind of problematic scenarios are suitable for the functions
create_partial_dictionary() and
sort_partial_dictionary(), which create a “partial”
dictionary that ease the process of unify the data.

dict_path <- file.path(folder, 'dict.xlsx')
unlink(dict_path)
create_partial_dictionary(folder, files, dict_path, verbose = F)
sort_partial_dictionary(dict_path, overwrite = T)
#> 
#> Save sorted dictionary in /home/runner/.cache/R/renv/library/dataRC-f4d37bc5/R-4.4/x86_64-pc-linux-gnu/dataRC/extdata/dict.xlsx.

dict <- readxl::read_excel(dict_path, sheet = 'colname') %>% print
#> # A tibble: 75 × 30
#>    uniname   uniclass  class_mode unique_classes   coverage nofetal1998.parquet
#>    <chr>     <chr>     <chr>      <chr>               <dbl> <chr>              
#>  1 A_DEFUN   integer   integer    integer               100 a_defun            
#>  2 ANO       integer   integer    integer               100 ano                
#>  3 AREA_RES  integer   integer    integer               100 area_res           
#>  4 ASIS_MED  integer   integer    integer               100 asis_med           
#>  5 C_BAS1    character character  character             100 c_bas1             
#>  6 C_MUERTE  NA        integer    integer; logical      100 c_muerte           
#>  7 CAU_HOMOL integer   integer    integer               100 cau_homol          
#>  8 COD_DPTO  integer   integer    integer               100 cod_dpto           
#>  9 COD_MUNIC integer   integer    integer               100 cod_munic          
#> 10 CODMUNOC  NA        integer    logical; integer      100 codmunoc           
#> # ℹ 65 more rows
#> # ℹ 24 more variables: nofetal1999.parquet <chr>, nofetal2000.parquet <chr>,
#> #   nofetal2001.parquet <chr>, nofetal2002.parquet <chr>,
#> #   nofetal2003.parquet <chr>, nofetal2004.parquet <chr>,
#> #   nofetal2005.parquet <chr>, nofetal2006.parquet <chr>,
#> #   nofetal2007.parquet <chr>, nofetal2008.parquet <chr>,
#> #   nofetal2009.parquet <chr>, nofetal2010.parquet <chr>, …
…
    # End lazy evaluation. If you use `read_parquet() this is unnecesary.
    collect
  
  # Save the iteration results.
  # NOTE: # If all columns are going to have the same columns is recommended to 
  # use `rbind()`.
  df <- dplyr::bind_rows(df, df0)
}
# MODIFY: Process your data as required.
df %>% group_by(ANO) %>% mutate(prop_ = n_ / sum(n_))
#> # A tibble: 50 × 4
#> # Groups:   ANO [25]
#>      ANO  SEXO    n_ prop_
#>    <int> <int> <int> <dbl>
#>  1  1998     2    43  0.43
#>  2  1998     1    57  0.57
#>  3  1999     1    78  0.78
#>  4  1999     2    22  0.22
#>  5  2000     2    38  0.38
#>  6  2000     1    62  0.62
#>  7  2001     1    78  0.78
#>  8  2001     2    22  0.22
#>  9  2002     2    40  0.4 
#> 10  2002     1    60  0.6 
#> # ℹ 40 more rows
…
    # End lazy evaluation. If you use `read_parquet() this is unnecesary.
    collect
  
  # Save the iteration results.
  # NOTE: # If all columns are going to have the same columns is recommended to 
  # use `rbind()`.
  df <- dplyr::bind_rows(df, df0)
}
# MODIFY: Process your data as required.
df %>% group_by(ANO) %>% mutate(prop_ = n_ / sum(n_))
#> # A tibble: 50 × 4
#> # Groups:   ANO [25]
#>      ANO  SEXO    n_ prop_
#>    <int> <int> <int> <dbl>
#>  1  1998     2    43  0.43
#>  2  1998     1    57  0.57
#>  3  1999     1    78  0.78
#>  4  1999     2    22  0.22
#>  5  2000     2    38  0.38
#>  6  2000     1    62  0.62
#>  7  2001     1    78  0.78
#>  8  2001     2    22  0.22
#>  9  2002     2    40  0.4 
#> 10  2002     1    60  0.6 
#> # ℹ 40 more rows
…
